****** PLAYBOOK RUN BREAKDOWN ******

{'skipped': {}, 'ok': {'localhost': 1}, 'dark': {}, 'failures': {}, 'ignored': {}, 'rescued': {}, 'processed': {'localhost': 1}, 'changed': {}}

EVENT:  verbose
UUID:  9cb51490-c5dd-4f77-9608-3a2b42ceb9cb

EVENT:  verbose
UUID:  d1ef1d9c-11ee-4dd6-8ddf-77eb892b8808

EVENT:  verbose
UUID:  b0867513-9cef-4dee-9f69-c204995df05f

EVENT:  playbook_on_start
UUID:  206d3553-3dce-427f-a07e-338821a87299

EVENT:  playbook_on_play_start
UUID:  a72b6e5a-887f-43ee-7faa-000000000001

EVENT:  playbook_on_task_start
UUID:  a72b6e5a-887f-43ee-7faa-000000000003

EVENT:  runner_on_start
UUID:  47d06098-b755-481c-8ac5-2ccfb5e35d1d

EVENT:  runner_on_ok
UUID:  64888dc9-6512-4846-a9f1-c352be3ce64d

EVENT:  playbook_on_stats
UUID:  f00592e3-f856-43aa-a679-b291cf62eb5a

